R for Data Science
…
airports

## # A tibble: 1,458 x 8
##    faa   name                   lat    lon   alt    tz dst   tzone        
##    <chr> <chr>                <dbl>  <dbl> <int> <dbl> <chr> <chr>        
##  1 04G   Lansdowne Airport     41.1  -80.6  1044    -5 A     America/New_
##  2 06A   Moton Field Municip  32.5  -85.7   264    -6 A     America/Chic
##  3 06C   Schaumburg Regional   42.0  -88.1   801    -6 A     America/Chic
##  4 06N   Randall Airport       41.4  -74.4   523    -5 A     America/New_
##  5 09J   Jekyll Island Airpo  31.1  -81.4    11    -5 A     America/New_
##  6 0A9   Elizabethton Munici  36.4  -82.2  1593    -5 A     America/New_
##  7 0G6   Williams County Air  41.5  -84.5   730    -5 A     America/New_
##  8 0G7   Finger Lakes Region  42.9  -76.8   492    -5 A     America/New_
##  9 0P2   Shoestring Aviation  39.8  -76.6  1000    -5 U     America/New_
## 10 0S9   Jefferson County In  48.1 -123.    108    -8 A     America/Los_
## # ... with 1,448 more rows

planes

## # A tibble: 3,322 x 9
##    tailnum  year type      manufacturer  model  engines seats speed engine
##    <chr>   <int> <chr>     <chr>         <chr>    <int> <int> <int> <chr> 
##  1 N10156   2004 Fixed wi EMBRAER       EMB-1       2    55    NA Turbo
##  2 N102UW   1998 Fixed wi AIRBUS INDUS A320-       2   182    NA Turbo
##  3 N103US   1999 Fixed wi AIRBUS INDUS A320-       2   182    NA Turbo
##  4 N104UW   1999 Fixed wi AIRBUS INDUS A320-       2   182    NA Turbo
##  5 N10575   2002 Fixed wi EMBRAER       EMB-1       2    55    NA Turbo
##  6 N105UW   1999 Fixed wi AIRBUS INDUS A320-       2   182    NA Turbo
##  7 N107US   1999 Fixed wi AIRBUS INDUS A320-       2   182    NA Turbo
##  8 N108UW   1999 Fixed wi AIRBUS INDUS A320-       2   182    NA Turbo
##  9 N109UW   1999 Fixed wi AIRBUS INDUS A320-       2   182    NA Turbo
## 10 N110UW   1999 Fixed wi AIRBUS INDUS A320-       2   182    NA Turbo
## # ... with 3,312 more rows

weather

## # A tibble: 26,130 x 15
##    origin  year month   day  hour  temp  dewp humid wind_dir wind_speed
##    <chr>  <dbl> <dbl> <int> <int> <dbl> <dbl> <dbl>    <dbl>      <dbl>
##  1 EWR     2013     1     1     0  37.0  21.9  54.0      230      10.4 
##  2 EWR     2013     1     1     1  37.0  21.9  54.0      230      13.8 
##  3 EWR     2013     1     1     2  37.9  21.9  52.1      230      12.7 
##  4 EWR     2013     1     1     3  37.9  23    54.5      230      13.8 
##  5 EWR     2013     1     1     4  37.9  24.1  57.0      240      15.0 
##  6 EWR     2013     1     1     6  39.0  26.1  59.4      270      10.4 
##  7 EWR     2013     1     1     7  39.0  27.0  61.6      250       8.06
##  8 EWR     2013     1     1     8  39.0  28.0  64.4      240      11.5 
##  9 EWR     2013     1     1     9  39.9  28.0  62.2      250      12.7 
## 10 EWR     2013     1     1    10  39.0  28.0  64.4      260      12.7 
## # ... with 26,120 more rows, and 5 more variables: wind_gust <dbl>,
## #   precip <dbl>, pressure <dbl>, visib <dbl>, time_hour <dttm>
…
tailnum connects planes and flights

carrier connects airlines and flights

flights connects to airports via origin and dest variables

weather connects to flights via origin, year, month, day, and hour

Count the primary keys and check that they are indeed unique

planes %>% 
  count(tailnum)

## # A tibble: 3,322 x 2
##    tailnum     n
##    <chr>   <int>
##  1 N10156      1
##  2 N102UW      1
##  3 N103US      1
##  4 N104UW      1
##  5 N10575      1
##  6 N105UW      1
##  7 N107US      1
##  8 N108UW      1
##  9 N109UW      1
## 10 N110UW      1
## # ... with 3,312 more rows
…
weather %>%
  count(year, month, day, hour, origin) %>%
  filter(n>1)

## # A tibble: 0 x 6
## # ... with 6 variables: year <dbl>, month <dbl>, day <int>, hour <int>,
## #   origin <chr>, n <int>

Some tables have complex primary keys

flights %>%
  count(year, month, day, flight) %>%
  filter(n>1)

## # A tibble: 29,768 x 5
##     year month   day flight     n
##    <int> <int> <int>  <int> <int>
##  1  2013     1     1      1     2
##  2  2013     1     1      3     2
##  3  2013     1     1      4     2
##  4  2013     1     1     11     3
##  5  2013     1     1     15     2
##  6  2013     1     1     21     2
##  7  2013     1     1     27     4
##  8  2013     1     1     31     2
##  9  2013     1     1     32     2
## 10  2013     1     1     35     2
## # ... with 29,758 more rows

So the flight number is not unique, are there every any more than 2 flights?

flights %>%
  count(year, month, day, flight) %>%
  filter(n>2) %>%
  arrange(desc(n))

## # A tibble: 2,739 x 5
##     year month   day flight     n
##    <int> <int> <int>  <int> <int>
##  1  2013     1     1     27     4
##  2  2013     4    13   1639     4
##  3  2013     4    20   1639     4
##  4  2013     4    27   1639     4
##  5  2013     6     9     15     4
##  6  2013     6    10     15     4
##  7  2013     6    11     15     4
##  8  2013     6    12     15     4
##  9  2013     6    13     15     4
## 10  2013     6    14     15     4
## # ... with 2,729 more rows

So at least 2,729 flights have more than 2 (and up to 4) flights per day. Lets add hour

flights %>%
  count(year, month, day, flight, hour) %>%
  filter(n>1) %>%
  arrange(desc(n))

## # A tibble: 2,945 x 6
##     year month   day flight  hour     n
##    <int> <int> <int>  <int> <dbl> <int>
##  1  2013     1     1     11     7     2
##  2  2013     1     1     32    12     2
##  3  2013     1     1     87    19     2
##  4  2013     1     1    303     6     2
##  5  2013     1     1    645    19     2
##  6  2013     1     1    702    16     2
##  7  2013     1     1    715     7     2
##  8  2013     1     1    717     8     2
##  9  2013     1     1   1443    12     2
## 10  2013     1     1   4105    15     2
## # ... with 2,935 more rows

Wow, that was not even sufficient! Lets add minute as well

flights %>%
  count(year, month, day, flight, hour, minute) %>%
  filter(n>1)

## # A tibble: 113 x 7
##     year month   day flight  hour minute     n
##    <int> <int> <int>  <int> <dbl>  <dbl> <int>
##  1  2013     1     1     32    12     59     2
##  2  2013     1     1   1443    12      0     2
##  3  2013     1     2   1443    12      0     2
##  4  2013     1    11   1625    11     30     2
##  5  2013     1    14   1625    11     30     2
##  6  2013     1    18   1625    11     30     2
##  7  2013     1    21   1625    11     30     2
##  8  2013     1    25   1625    11     30     2
##  9  2013     1    28   1625    11     30     2
## 10  2013     2     1   1625    11     30     2
## # ... with 103 more rows
…
flights %>%
  count(year, month, day, flight, tailnum, hour, minute) %>%
  filter(n>1)

## # A tibble: 0 x 8
## # ... with 8 variables: year <int>, month <int>, day <int>, flight <int>,
## #   tailnum <chr>, hour <dbl>, minute <dbl>, n <int>

Finally, this appears like it would be sufficient to create a primary key. It would be easiest to construct a primary key after doing this complete grouping, or just do a primary key by row number:

flights %>%
  mutate(primary_key = row_number()) %>%
  select(primary_key, everything())

## # A tibble: 336,776 x 20
##    primary_key  year month   day dep_time sched_dep_time dep_delay
##          <int> <int> <int> <int>    <int>          <int>     <dbl>
##  1           1  2013     1     1      517            515         2
##  2           2  2013     1     1      533            529         4
##  3           3  2013     1     1      542            540         2
##  4           4  2013     1     1      544            545        -1
##  5           5  2013     1     1      554            600        -6
##  6           6  2013     1     1      554            558        -4
##  7           7  2013     1     1      555            600        -5
##  8           8  2013     1     1      557            600        -3
##  9           9  2013     1     1      557            600        -3
## 10          10  2013     1     1      558            600        -2
## # ... with 336,766 more rows, and 13 more variables: arr_time <int>,
## #   sched_arr_time <int>, arr_delay <dbl>, carrier <chr>, flight <int>,
## #   tailnum <chr>, origin <chr>, dest <chr>, air_time <dbl>,
## #   distance <dbl>, hour <dbl>, minute <dbl>, time_hour <dttm>

Joins

flights2 <- flights %>%
  select(year:day, hour, origin, dest, tailnum, carrier)
flights2

## # A tibble: 336,776 x 8
##     year month   day  hour origin dest  tailnum carrier
##    <int> <int> <int> <dbl> <chr>  <chr> <chr>   <chr>  
##  1  2013     1     1     5 EWR    IAH   N14228  UA     
##  2  2013     1     1     5 LGA    IAH   N24211  UA     
##  3  2013     1     1     5 JFK    MIA   N619AA  AA     
##  4  2013     1     1     5 JFK    BQN   N804JB  B6     
##  5  2013     1     1     6 LGA    ATL   N668DN  DL     
##  6  2013     1     1     5 EWR    ORD   N39463  UA     
##  7  2013     1     1     6 EWR    FLL   N516JB  B6     
##  8  2013     1     1     6 LGA    IAD   N829AS  EV     
##  9  2013     1     1     6 JFK    MCO   N593JB  B6     
## 10  2013     1     1     6 LGA    ORD   N3ALAA  AA     
## # ... with 336,766 more rows

Now left join to get the full airline name

flights2 %>%
  select(-origin, -dest) %>%
  left_join(airlines, by="carrier")

## # A tibble: 336,776 x 7
##     year month   day  hour tailnum carrier name                    
##    <int> <int> <int> <dbl> <chr>   <chr>   <chr>                   
##  1  2013     1     1     5 N14228  UA      United Air Lines Inc.   
##  2  2013     1     1     5 N24211  UA      United Air Lines Inc.   
##  3  2013     1     1     5 N619AA  AA      American Airlines Inc.  
##  4  2013     1     1     5 N804JB  B6      JetBlue Airways         
##  5  2013     1     1     6 N668DN  DL      Delta Air Lines Inc.    
##  6  2013     1     1     5 N39463  UA      United Air Lines Inc.   
##  7  2013     1     1     6 N516JB  B6      JetBlue Airways         
##  8  2013     1     1     6 N829AS  EV      ExpressJet Airlines Inc.
##  9  2013     1     1     6 N593JB  B6      JetBlue Airways         
## 10  2013     1     1     6 N3ALAA  AA      American Airlines Inc.  
## # ... with 336,766 more rows

An example of a more complex by statement is

flights2 %>%
  left_join(airports, by=c("dest"="faa"))

## # A tibble: 336,776 x 15
##     year month   day  hour origin dest  tailnum carrier name     lat   lon
##    <int> <int> <int> <dbl> <chr>  <chr> <chr>   <chr>   <chr>  <dbl> <dbl>
##  1  2013     1     1     5 EWR    IAH   N14228  UA      Georg  30.0 -95.3
##  2  2013     1     1     5 LGA    IAH   N24211  UA      Georg  30.0 -95.3
##  3  2013     1     1     5 JFK    MIA   N619AA  AA      Miami  25.8 -80.3
##  4  2013     1     1     5 JFK    BQN   N804JB  B6      <NA>    NA    NA  
##  5  2013     1     1     6 LGA    ATL   N668DN  DL      Harts  33.6 -84.4
##  6  2013     1     1     5 EWR    ORD   N39463  UA      Chica  42.0 -87.9
##  7  2013     1     1     6 EWR    FLL   N516JB  B6      Fort   26.1 -80.2
##  8  2013     1     1     6 LGA    IAD   N829AS  EV      Washi  38.9 -77.5
##  9  2013     1     1     6 JFK    MCO   N593JB  B6      Orlan  28.4 -81.3
## 10  2013     1     1     6 LGA    ORD   N3ALAA  AA      Chica  42.0 -87.9
## # ... with 336,766 more rows, and 4 more variables: alt <int>, tz <dbl>,
## #   dst <chr>, tzone <chr>
…
You can also supply a timezone

ymd(2018-01-31, tz="UTC")

## Warning: All formats failed to parse. No formats found.

## [1] NA

From individual flight components:

flights %>%
  select(year, month,day, hour, minute)

## # A tibble: 336,776 x 5
##     year month   day  hour minute
##    <int> <int> <int> <dbl>  <dbl>
##  1  2013     1     1     5     15
##  2  2013     1     1     5     29
##  3  2013     1     1     5     40
##  4  2013     1     1     5     45
##  5  2013     1     1     6      0
##  6  2013     1     1     5     58
##  7  2013     1     1     6      0
##  8  2013     1     1     6      0
##  9  2013     1     1     6      0
## 10  2013     1     1     6      0
## # ... with 336,766 more rows

flights %>%
  select(year, month,day, hour, minute) %>%
  mutate(departure = make_datetime(year, month, day, hour, minute))

## # A tibble: 336,776 x 6
##     year month   day  hour minute departure          
##    <int> <int> <int> <dbl>  <dbl> <dttm>             
##  1  2013     1     1     5     15 2013-01-01 05:15:00
##  2  2013     1     1     5     29 2013-01-01 05:29:00
##  3  2013     1     1     5     40 2013-01-01 05:40:00
##  4  2013     1     1     5     45 2013-01-01 05:45:00
##  5  2013     1     1     6      0 2013-01-01 06:00:00
##  6  2013     1     1     5     58 2013-01-01 05:58:00
##  7  2013     1     1     6      0 2013-01-01 06:00:00
##  8  2013     1     1     6      0 2013-01-01 06:00:00
##  9  2013     1     1     6      0 2013-01-01 06:00:00
## 10  2013     1     1     6      0 2013-01-01 06:00:00
## # ... with 336,766 more rows
…
flights_dt <- flights %>% 
  filter(!is.na(dep_time), !is.na(arr_time)) %>% 
  mutate(
    dep_time = make_datetime_100(year, month, day, dep_time),
    arr_time = make_datetime_100(year, month, day, arr_time),
    sched_dep_time = make_datetime_100(year, month, day, sched_dep_time),
    sched_arr_time = make_datetime_100(year, month, day, sched_arr_time)
  ) %>% 
  select(origin, dest, ends_with("delay"), ends_with("time"))

flights_dt

## # A tibble: 328,063 x 9
##    origin dest  dep_delay arr_delay dep_time           
##    <chr>  <chr>     <dbl>     <dbl> <dttm>             
##  1 EWR    IAH           2        11 2013-01-01 05:17:00
##  2 LGA    IAH           4        20 2013-01-01 05:33:00
##  3 JFK    MIA           2        33 2013-01-01 05:42:00
##  4 JFK    BQN          -1       -18 2013-01-01 05:44:00
##  5 LGA    ATL          -6       -25 2013-01-01 05:54:00
##  6 EWR    ORD          -4        12 2013-01-01 05:54:00
##  7 EWR    FLL          -5        19 2013-01-01 05:55:00
##  8 LGA    IAD          -3       -14 2013-01-01 05:57:00
##  9 JFK    MCO          -3        -8 2013-01-01 05:57:00
## 10 LGA    ORD          -2         8 2013-01-01 05:58:00
## # ... with 328,053 more rows, and 4 more variables: sched_dep_time <dttm>,
## #   arr_time <dttm>, sched_arr_time <dttm>, air_time <dbl>
…
